<svg xmlns="http://www.w3.org/2000/svg" viewBox="1444 1281 123.16 123.16">
  <defs>
    <style>
      .cls-1 {
        fill: #517fa4;
      }

      .cls-2 {
        fill: #fff;
      }
    </style>
  </defs>
  <g id="Group_680" data-name="Group 680" transform="translate(91 -22)">
    <circle id="Ellipse_1" data-name="Ellipse 1" class="cls-1" cx="61.58" cy="61.58" r="61.58" transform="translate(1353 1303)"/>
    <g id="Group_678" data-name="Group 678" transform="translate(1061.4 1209.9)">
      <g id="Group_557" data-name="Group 557">
        <g id="Group_551" data-name="Group 551">
          <g id="Group_550" data-name="Group 550">
            <g id="Group_549" data-name="Group 549">
              <g id="Group_548" data-name="Group 548">
                <g id="Group_547" data-name="Group 547">
                  <path id="Path_97" data-name="Path 97" class="cls-2" d="M386.2,152.6l-31.6-28.3-35.5,27.5-1.5-1.9,37.1-28.8,33.1,29.7Z"/>
                </g>
              </g>
            </g>
          </g>
        </g>
        <g id="Group_556" data-name="Group 556">
          <g id="Group_555" data-name="Group 555">
            <g id="Group_554" data-name="Group 554">
              <g id="Group_553" data-name="Group 553">
                <g id="Group_552" data-name="Group 552">
                  <path id="Path_98" data-name="Path 98" class="cls-2" d="M382.9,147.8h-2.4V129.4h-5.9v11h-2.4V127h10.7Z"/>
                </g>
              </g>
            </g>
          </g>
        </g>
      </g>
      <g id="Group_599" data-name="Group 599">
        <g id="Group_562" data-name="Group 562">
          <g id="Group_561" data-name="Group 561">
            <g id="Group_560" data-name="Group 560">
              <g id="Group_559" data-name="Group 559">
                <g id="Group_558" data-name="Group 558">
                  <path id="Path_99" data-name="Path 99" class="cls-2" d="M372.4,158a4.7,4.7,0,1,1,4.7-4.7A4.695,4.695,0,0,1,372.4,158Zm0-7a2.3,2.3,0,1,0,2.3,2.3A2.263,2.263,0,0,0,372.4,151Z"/>
                </g>
              </g>
            </g>
          </g>
        </g>
        <g id="Group_567" data-name="Group 567">
          <g id="Group_566" data-name="Group 566">
            <g id="Group_565" data-name="Group 565">
              <g id="Group_564" data-name="Group 564">
                <g id="Group_563" data-name="Group 563">
                  <path id="Path_100" data-name="Path 100" class="cls-2" d="M381.3,176.2l-17.5-.1,4.5-12.6,2.3.8-3.4,9.4,10.7.1-3.7-9.5,2.3-.9Z"/>
                </g>
              </g>
            </g>
          </g>
        </g>
        <g id="Group_572" data-name="Group 572">
          <g id="Group_571" data-name="Group 571">
            <g id="Group_570" data-name="Group 570">
              <g id="Group_569" data-name="Group 569">
                <g id="Group_568" data-name="Group 568">
                  <path id="Path_101" data-name="Path 101" class="cls-2" d="M364.4,170.3l-2.2-.9,3-7.4c.9-2.6,2.7-4.1,5.2-4.1h4.5a5.813,5.813,0,0,1,5.2,3.6l3.4,7.4-2.2,1-3.4-7.4a3.4,3.4,0,0,0-3-2.2h-4.5c-1.4,0-2.4.8-2.9,2.5v.1Z"/>
                </g>
              </g>
            </g>
          </g>
        </g>
        <g id="Group_577" data-name="Group 577">
          <g id="Group_576" data-name="Group 576">
            <g id="Group_575" data-name="Group 575">
              <g id="Group_574" data-name="Group 574">
                <g id="Group_573" data-name="Group 573">
                  <path id="Path_102" data-name="Path 102" class="cls-2" d="M380.7,174.5a3.471,3.471,0,0,1-2.5-1l1.6-1.8a1.588,1.588,0,0,0,1.6.2c.1-.1.5-.3.3-1.1l2.3-.7a3.36,3.36,0,0,1-1.3,3.8A3.29,3.29,0,0,1,380.7,174.5Z"/>
                </g>
              </g>
            </g>
          </g>
        </g>
        <g id="Group_582" data-name="Group 582">
          <g id="Group_581" data-name="Group 581">
            <g id="Group_580" data-name="Group 580">
              <g id="Group_579" data-name="Group 579">
                <g id="Group_578" data-name="Group 578">
                  <path id="Path_103" data-name="Path 103" class="cls-2" d="M364.5,174.6a2.6,2.6,0,0,1-1.5-.4,3.2,3.2,0,0,1-1.6-3.8l2.3.7a.754.754,0,0,0,.3,1c.4.2,1,.2,1.6-.6l1.9,1.5A3.947,3.947,0,0,1,364.5,174.6Z"/>
                </g>
              </g>
            </g>
          </g>
        </g>
        <g id="Group_598" data-name="Group 598">
          <g id="Group_587" data-name="Group 587">
            <g id="Group_586" data-name="Group 586">
              <g id="Group_585" data-name="Group 585">
                <g id="Group_584" data-name="Group 584">
                  <g id="Group_583" data-name="Group 583">
                    <path id="Path_104" data-name="Path 104" class="cls-2" d="M370.6,187.5h0c-1.8,0-3.2-1.1-3.2-2.6V174.5h2.4v10.3a1.207,1.207,0,0,0,.8.3h0a1.207,1.207,0,0,0,.8-.3V174.3h2.4V185C373.9,186.4,372.4,187.5,370.6,187.5Z"/>
                  </g>
                </g>
              </g>
            </g>
          </g>
          <g id="Group_592" data-name="Group 592">
            <g id="Group_591" data-name="Group 591">
              <g id="Group_590" data-name="Group 590">
                <g id="Group_589" data-name="Group 589">
                  <g id="Group_588" data-name="Group 588">
                    <rect id="Rectangle_38" data-name="Rectangle 38" class="cls-2" width="2.4" height="0.2" transform="translate(371.5 174.1)"/>
                  </g>
                </g>
              </g>
            </g>
          </g>
          <g id="Group_597" data-name="Group 597">
            <g id="Group_596" data-name="Group 596">
              <g id="Group_595" data-name="Group 595">
                <g id="Group_594" data-name="Group 594">
                  <g id="Group_593" data-name="Group 593">
                    <path id="Path_105" data-name="Path 105" class="cls-2" d="M374.7,187.5h0c-1.8,0-3.2-1.1-3.2-2.6V174.5h2.4v10.3a1.207,1.207,0,0,0,.8.3h0a1.207,1.207,0,0,0,.8-.3v-10h2.4V185C377.9,186.4,376.5,187.5,374.7,187.5Z"/>
                  </g>
                </g>
              </g>
            </g>
          </g>
        </g>
      </g>
      <g id="Group_604" data-name="Group 604">
        <g id="Group_603" data-name="Group 603">
          <g id="Group_602" data-name="Group 602">
            <g id="Group_601" data-name="Group 601">
              <g id="Group_600" data-name="Group 600">
                <path id="Path_106" data-name="Path 106" class="cls-2" d="M354.1,169.4a3.6,3.6,0,1,1,3.6-3.6A3.585,3.585,0,0,1,354.1,169.4Zm0-4.9a1.2,1.2,0,1,0,0,2.4,1.29,1.29,0,0,0,1.2-1.2A1.216,1.216,0,0,0,354.1,164.5Z"/>
              </g>
            </g>
          </g>
        </g>
      </g>
      <g id="Group_609" data-name="Group 609">
        <g id="Group_608" data-name="Group 608">
          <g id="Group_607" data-name="Group 607">
            <g id="Group_606" data-name="Group 606">
              <g id="Group_605" data-name="Group 605">
                <path id="Path_107" data-name="Path 107" class="cls-2" d="M360.2,181.3l-11.5-.1,1-8,2.4.3-.7,5.3h5.8l-1-5.3,2.3-.5Z"/>
              </g>
            </g>
          </g>
        </g>
      </g>
      <g id="Group_614" data-name="Group 614">
        <g id="Group_613" data-name="Group 613">
          <g id="Group_612" data-name="Group 612">
            <g id="Group_611" data-name="Group 611">
              <g id="Group_610" data-name="Group 610">
                <path id="Path_108" data-name="Path 108" class="cls-2" d="M351.7,175l-6.3-4.2,1.3-2,3.8,2.6a4.025,4.025,0,0,1,3.7-1.8h0a3.87,3.87,0,0,1,3.7,2.1l4.1-1.8,1,2.2-6.3,2.8-.5-1.2c-.5-1.2-.8-1.7-2-1.7h0c-1.6,0-1.8.7-2,1.5Z"/>
              </g>
            </g>
          </g>
        </g>
      </g>
      <g id="Group_620" data-name="Group 620">
        <g id="Group_619" data-name="Group 619">
          <g id="Group_618" data-name="Group 618">
            <g id="Group_617" data-name="Group 617">
              <g id="Group_616" data-name="Group 616">
                <g id="Group_615" data-name="Group 615">
                  <rect id="Rectangle_39" data-name="Rectangle 39" class="cls-2" width="2.4" height="0.2" transform="translate(353.1 179.4)"/>
                </g>
              </g>
            </g>
          </g>
        </g>
      </g>
      <g id="Group_667" data-name="Group 667">
        <g id="Group_625" data-name="Group 625">
          <g id="Group_624" data-name="Group 624">
            <g id="Group_623" data-name="Group 623">
              <g id="Group_622" data-name="Group 622">
                <g id="Group_621" data-name="Group 621">
                  <path id="Path_109" data-name="Path 109" class="cls-2" d="M335.7,156a4.9,4.9,0,1,1,4.9-4.9A4.908,4.908,0,0,1,335.7,156Zm0-7.4a2.5,2.5,0,1,0,2.5,2.5A2.476,2.476,0,0,0,335.7,148.6Z"/>
                </g>
              </g>
            </g>
          </g>
        </g>
        <g id="Group_630" data-name="Group 630">
          <g id="Group_629" data-name="Group 629">
            <g id="Group_628" data-name="Group 628">
              <g id="Group_627" data-name="Group 627">
                <g id="Group_626" data-name="Group 626">
                  <path id="Path_110" data-name="Path 110" class="cls-2" d="M333,174.7h-2.4c0-1,0-10,.8-12.6l2.3.7C333.1,164.7,333,172.1,333,174.7Z"/>
                </g>
              </g>
            </g>
          </g>
        </g>
        <g id="Group_635" data-name="Group 635">
          <g id="Group_634" data-name="Group 634">
            <g id="Group_633" data-name="Group 633">
              <g id="Group_632" data-name="Group 632">
                <g id="Group_631" data-name="Group 631">
                  <path id="Path_111" data-name="Path 111" class="cls-2" d="M339,174.7c0-3.9-.2-10.2-.7-11.8l2.3-.7c.8,2.5.8,11.5.8,12.6Z"/>
                </g>
              </g>
            </g>
          </g>
        </g>
        <g id="Group_640" data-name="Group 640">
          <g id="Group_639" data-name="Group 639">
            <g id="Group_638" data-name="Group 638">
              <g id="Group_637" data-name="Group 637">
                <g id="Group_636" data-name="Group 636">
                  <path id="Path_112" data-name="Path 112" class="cls-2" d="M327.1,169.1l-2.2-.9,3.1-7.9c.9-2.8,2.9-4.4,5.4-4.4h4.8a6.127,6.127,0,0,1,5.4,3.8l3.6,7.9-2.2,1-3.6-7.9a3.747,3.747,0,0,0-3.2-2.4h-4.8c-1.5,0-2.6.9-3.2,2.8v.1Z"/>
                </g>
              </g>
            </g>
          </g>
        </g>
        <g id="Group_645" data-name="Group 645">
          <g id="Group_644" data-name="Group 644">
            <g id="Group_643" data-name="Group 643">
              <g id="Group_642" data-name="Group 642">
                <g id="Group_641" data-name="Group 641">
                  <path id="Path_113" data-name="Path 113" class="cls-2" d="M344,172.1a3.7,3.7,0,0,1-2.6-1l1.6-1.8a1.4,1.4,0,0,0,1.7.2c.4-.2.5-.7.3-1.3l2.3-.7a3.365,3.365,0,0,1-1.3,3.9A3.25,3.25,0,0,1,344,172.1Z"/>
                </g>
              </g>
            </g>
          </g>
        </g>
        <g id="Group_650" data-name="Group 650">
          <g id="Group_649" data-name="Group 649">
            <g id="Group_648" data-name="Group 648">
              <g id="Group_647" data-name="Group 647">
                <g id="Group_646" data-name="Group 646">
                  <path id="Path_114" data-name="Path 114" class="cls-2" d="M328.1,172.4a2.934,2.934,0,0,1-1.6-.4,3.214,3.214,0,0,1-1.6-3.9l2.3.7a.851.851,0,0,0,.4,1.1,1.356,1.356,0,0,0,1.7-.6l1.9,1.5A4.127,4.127,0,0,1,328.1,172.4Z"/>
                </g>
              </g>
            </g>
          </g>
        </g>
        <g id="Group_666" data-name="Group 666">
          <g id="Group_655" data-name="Group 655">
            <g id="Group_654" data-name="Group 654">
              <g id="Group_653" data-name="Group 653">
                <g id="Group_652" data-name="Group 652">
                  <g id="Group_651" data-name="Group 651">
                    <path id="Path_115" data-name="Path 115" class="cls-2" d="M333.8,187.3h0a2.951,2.951,0,0,1-3.2-2.6v-11H333v11a1.207,1.207,0,0,0,.8.3h0a2.431,2.431,0,0,0,1.1-.3V173.6h2.4v11.2C337.3,186.3,335.5,187.3,333.8,187.3Z"/>
                  </g>
                </g>
              </g>
            </g>
          </g>
          <g id="Group_660" data-name="Group 660">
            <g id="Group_659" data-name="Group 659">
              <g id="Group_658" data-name="Group 658">
                <g id="Group_657" data-name="Group 657">
                  <g id="Group_656" data-name="Group 656">
                    <rect id="Rectangle_40" data-name="Rectangle 40" class="cls-2" width="2.4" height="0.2" transform="translate(334.9 173.2)"/>
                  </g>
                </g>
              </g>
            </g>
          </g>
          <g id="Group_665" data-name="Group 665">
            <g id="Group_664" data-name="Group 664">
              <g id="Group_663" data-name="Group 663">
                <g id="Group_662" data-name="Group 662">
                  <g id="Group_661" data-name="Group 661">
                    <path id="Path_116" data-name="Path 116" class="cls-2" d="M338.1,187.3h0a2.951,2.951,0,0,1-3.2-2.6v-11h2.4v11a1.207,1.207,0,0,0,.8.3h0a1,1,0,0,0,.8-.3V174h2.4v10.8C341.3,186.1,339.9,187.3,338.1,187.3Z"/>
                  </g>
                </g>
              </g>
            </g>
          </g>
        </g>
      </g>
      <g id="Group_672" data-name="Group 672">
        <g id="Group_671" data-name="Group 671">
          <g id="Group_670" data-name="Group 670">
            <g id="Group_669" data-name="Group 669">
              <g id="Group_668" data-name="Group 668">
                <path id="Path_117" data-name="Path 117" class="cls-2" d="M352.3,187.5a1.155,1.155,0,0,1-1.2-1.2v-5a1.2,1.2,0,0,1,2.4,0v5A1.155,1.155,0,0,1,352.3,187.5Z"/>
              </g>
            </g>
          </g>
        </g>
      </g>
      <g id="Group_677" data-name="Group 677">
        <g id="Group_676" data-name="Group 676">
          <g id="Group_675" data-name="Group 675">
            <g id="Group_674" data-name="Group 674">
              <g id="Group_673" data-name="Group 673">
                <path id="Path_118" data-name="Path 118" class="cls-2" d="M356.2,187.5h0a1.155,1.155,0,0,1-1.2-1.2v-5.1a1.2,1.2,0,0,1,2.4,0v5.1A1.216,1.216,0,0,1,356.2,187.5Z"/>
              </g>
            </g>
          </g>
        </g>
      </g>
    </g>
  </g>
</svg>
